{
  "Id": "LocalizationTuner",
  "DisplayName": "Localization Tuner",
  "Author": "denbkh",
  "Version": "1.3.0",
  "ManagerVersion": "0.22.11",
  "EntryMethod": "LocalizationTuner.LocalizationTuner.Load",
  "HomePage": "https://www.nexusmods.com/pathfinderkingmaker/mods/115",
  "Repository": "https://bitbucket.org/den_bkh/localization-tuner/raw/master/UnityModManager-Repository.json"
}